\relax 
\providecommand\hyper@newdestlabel[2]{}
\providecommand{\transparent@use}[1]{}
\providecommand*{\memsetcounter}[2]{}
\catcode `"\active 
\catcode `-\active 
\providecommand\HyperFirstAtBeginDocument{\AtBeginDocument}
\HyperFirstAtBeginDocument{\ifx\hyper@anchor\@undefined
\global\let\oldcontentsline\contentsline
\gdef\contentsline#1#2#3#4{\oldcontentsline{#1}{#2}{#3}}
\global\let\oldnewlabel\newlabel
\gdef\newlabel#1#2{\newlabelxx{#1}#2}
\gdef\newlabelxx#1#2#3#4#5#6{\oldnewlabel{#1}{{#2}{#3}}}
\AtEndDocument{\ifx\hyper@anchor\@undefined
\let\contentsline\oldcontentsline
\let\newlabel\oldnewlabel
\fi}
\fi}
\global\let\hyper@last\relax 
\gdef\HyperFirstAtBeginDocument#1{#1}
\providecommand\HyField@AuxAddToFields[1]{}
\providecommand\HyField@AuxAddToCoFields[2]{}
\select@language{czech}
\@writefile{toc}{\select@language{czech}}
\@writefile{lof}{\select@language{czech}}
\@writefile{lot}{\select@language{czech}}
\select@language{czech}
\@writefile{toc}{\select@language{czech}}
\@writefile{lof}{\select@language{czech}}
\@writefile{lot}{\select@language{czech}}
\@writefile{toc}{\contentsline {subsection}{Odkaz na tuto pr{\' a}ci}{viii}{section*.1}}
\citation{wiki:Delaunay_triangulation}
\citation{wiki:Voronoi_diagram}
\citation{algsincompgeom}
\citation{cgaithra}
\citation{cgic}
\citation{cgai}
\citation{graham}
\citation{jarvis}
\citation{tupcha}
\@writefile{lof}{\addvspace {10pt}}
\@writefile{lot}{\addvspace {10pt}}
\@writefile{toc}{\contentsline {chapter}{{\' U}vod}{1}{chapter*.5}}
\@writefile{toc}{\contentsline {section}{C\IeC {\'\i }le pr\IeC {\'a}ce}{1}{section*.6}}
\@writefile{toc}{\contentsline {section}{Struktura pr\IeC {\'a}ce}{2}{section*.7}}
\citation{mitura}
\citation{cgic}
\citation{cgaa}
\@writefile{lof}{\addvspace {10pt}}
\@writefile{lot}{\addvspace {10pt}}
\@writefile{toc}{\contentsline {chapter}{\chapternumberline {1}Teorie}{3}{chapter.1}}
\newlabel{chap:teorie}{{\M@TitleReference {1}{Teorie}}{3}{Teorie}{chapter.1}{}}
\@writefile{toc}{\contentsline {section}{\numberline {1.1}Z\IeC {\'a}kladn\IeC {\'\i } pojmy}{3}{section.1.1}}
\citation{convex2D3D}
\citation{convex2D3D}
\@writefile{lof}{\contentsline {figure}{\numberline {1.1}{\ignorespaces Konvexn\IeC {\'\i } a nekonvexn\IeC {\'\i } mno\IeC {\v z}ina v~$\mathbb  {R}^2$\relax }}{5}{figure.caption.8}}
\providecommand*\caption@xref[2]{\@setref\relax\@undefined{#1}}
\newlabel{connoncon}{{\M@TitleReference {1.1}{Konvexn\IeC {\'\i } a nekonvexn\IeC {\'\i } mno\IeC {\v z}ina v~$\mathbb  {R}^2$\relax }}{5}{Konvexní a nekonvexní množina v~$\mathbb {R}^2$\relax }{figure.caption.8}{}}
\@writefile{lof}{\contentsline {figure}{\numberline {1.2}{\ignorespaces Konvexn\IeC {\'\i } ob\IeC {\'a}lka v~$\mathbb  {R}^2$ a $\mathbb  {R}^3$\relax }}{5}{figure.caption.9}}
\newlabel{qhull2d3d}{{\M@TitleReference {1.2}{Konvexn\IeC {\'\i } ob\IeC {\'a}lka v~$\mathbb  {R}^2$ a $\mathbb  {R}^3$\relax }}{5}{Konvexní obálka v~$\mathbb {R}^2$ a $\mathbb {R}^3$\relax }{figure.caption.9}{}}
\@writefile{toc}{\contentsline {section}{\numberline {1.2}Konvexn\IeC {\'\i } ob\IeC {\'a}lka}{5}{section.1.2}}
\citation{euclid}
\newlabel{nadrovina}{{\M@TitleReference {6}{Konvexn\IeC {\'\i } ob\IeC {\'a}lka}}{6}{}{definition.6}{}}
\@writefile{lof}{\contentsline {figure}{\numberline {1.3}{\ignorespaces Nadrovina a jej\IeC {\'\i } poloprostory v~$\mathbb  {R}^2$\relax }}{6}{figure.caption.10}}
\newlabel{hyperplane}{{\M@TitleReference {1.3}{Nadrovina a jej\IeC {\'\i } poloprostory v~$\mathbb  {R}^2$\relax }}{6}{Nadrovina a její poloprostory v~$\mathbb {R}^2$\relax }{figure.caption.10}{}}
\newlabel{def:simplex}{{\M@TitleReference {8}{Konvexn\IeC {\'\i } ob\IeC {\'a}lka}}{6}{}{definition.8}{}}
\@writefile{lof}{\contentsline {figure}{\numberline {1.4}{\ignorespaces Simplexy v~prostorech $\mathbb  {R}^1$, $\mathbb  {R}^2$ a $\mathbb  {R}^3$\relax }}{6}{figure.caption.11}}
\newlabel{simplex}{{\M@TitleReference {1.4}{Simplexy v~prostorech $\mathbb  {R}^1$, $\mathbb  {R}^2$ a $\mathbb  {R}^3$\relax }}{6}{Simplexy v~prostorech $\mathbb {R}^1$, $\mathbb {R}^2$ a $\mathbb {R}^3$\relax }{figure.caption.11}{}}
\citation{chcas}
\citation{cgic}
\newlabel{stena}{{\M@TitleReference {9}{Konvexn\IeC {\'\i } ob\IeC {\'a}lka}}{7}{}{definition.9}{}}
\@writefile{lof}{\contentsline {figure}{\numberline {1.5}{\ignorespaces Topologie 3D-simplexu\relax }}{7}{figure.caption.12}}
\newlabel{topology}{{\M@TitleReference {1.5}{Topologie 3D-simplexu\relax }}{7}{Topologie 3D-simplexu\relax }{figure.caption.12}{}}
\newlabel{veta:euler}{{\M@TitleReference {1}{Konvexn\IeC {\'\i } ob\IeC {\'a}lka}}{7}{Eulerova rovnice}{veta.1}{}}
\newlabel{eq:euler}{{1.1}{7}{Eulerova rovnice}{equation.1.2.1}{}}
\newlabel{veta:eulerdusl}{{\M@TitleReference {2}{Konvexn\IeC {\'\i } ob\IeC {\'a}lka}}{8}{}{veta.2}{}}
\newlabel{p11}{{1.2}{8}{Konvexní obálka}{equation.1.2.2}{}}
\newlabel{dusl:mnohosten}{{\M@TitleReference {1}{Konvexn\IeC {\'\i } ob\IeC {\'a}lka}}{8}{}{dusledek.1}{}}
\citation{mitura}
\@writefile{toc}{\contentsline {section}{\numberline {1.3}Doln\IeC {\'\i } hranice slo\IeC {\v z}itosti}{9}{section.1.3}}
\citation{mitura}
\citation{cpp:stl}
\citation{cpp:algorithm}
\citation{cpp:math}
\citation{mitura}
\@writefile{lof}{\addvspace {10pt}}
\@writefile{lot}{\addvspace {10pt}}
\@writefile{toc}{\contentsline {chapter}{\chapternumberline {2}Softwarov\IeC {\'e} aspekty}{11}{chapter.2}}
\@writefile{toc}{\contentsline {section}{\numberline {2.1}Pou\IeC {\v z}it\IeC {\'e} technologie}{11}{section.2.1}}
\@writefile{toc}{\contentsline {subsection}{\numberline {2.1.1}Programovac\IeC {\'\i } jazyk}{11}{subsection.2.1.1}}
\@writefile{toc}{\contentsline {subsection}{\numberline {2.1.2}Pou\IeC {\v z}it\IeC {\'e} knihovny}{11}{subsection.2.1.2}}
\@writefile{toc}{\contentsline {subsection}{\numberline {2.1.3}OpenMP}{12}{subsection.2.1.3}}
\@writefile{toc}{\contentsline {paragraph}{Mo\IeC {\v z}nosti OpenMP}{12}{section*.13}}
\citation{qhull}
\citation{cgal}
\citation{cpp:stl}
\citation{halfedge}
\@writefile{toc}{\contentsline {section}{\numberline {2.2}Existuj\IeC {\'\i }c\IeC {\'\i } \IeC {\v r}e\IeC {\v s}en\IeC {\'\i }}{13}{section.2.2}}
\@writefile{toc}{\contentsline {section}{\numberline {2.3}Datov\IeC {\'e} struktury}{13}{section.2.3}}
\@writefile{toc}{\contentsline {subsection}{\numberline {2.3.1}Reprezentace mnohost\IeC {\v e}nu}{13}{subsection.2.3.1}}
\@writefile{toc}{\contentsline {subsubsection}{\numberline {2.3.1.1}Half-edge struktura}{13}{subsubsection.2.3.1.1}}
\citation{cgic}
\citation{quadedge}
\@writefile{lof}{\contentsline {figure}{\numberline {2.1}{\ignorespaces Uk\IeC {\'a}zka half-edge struktury\relax }}{14}{figure.caption.14}}
\newlabel{halfedge}{{\M@TitleReference {2.1}{Uk\IeC {\'a}zka half-edge struktury\relax }}{14}{Ukázka half-edge struktury\relax }{figure.caption.14}{}}
\@writefile{toc}{\contentsline {subsubsection}{\numberline {2.3.1.2}Dal\IeC {\v s}\IeC {\'\i } mo\IeC {\v z}n\IeC {\'e} struktury}{14}{subsubsection.2.3.1.2}}
\citation{mitura}
\citation{jarvis}
\citation{afcp}
\@writefile{lof}{\addvspace {10pt}}
\@writefile{lot}{\addvspace {10pt}}
\@writefile{toc}{\contentsline {chapter}{\chapternumberline {3}Algoritmy pro nalezen\IeC {\'\i } konvexn\IeC {\'\i } ob\IeC {\'a}lky ve 3D}{15}{chapter.3}}
\newlabel{chap:znameAlgoritmy}{{\M@TitleReference {3}{Algoritmy pro nalezen\IeC {\'\i } konvexn\IeC {\'\i } ob\IeC {\'a}lky ve 3D}}{15}{Algoritmy pro nalezení konvexní obálky ve 3D}{chapter.3}{}}
\@writefile{toc}{\contentsline {section}{\numberline {3.1}Jarvis March}{15}{section.3.1}}
\newlabel{sec:jarvis}{{\M@TitleReference {3.1}{Jarvis March}}{15}{Jarvis March}{section.3.1}{}}
\@writefile{toc}{\contentsline {subsection}{\numberline {3.1.1}Popis algoritmu}{15}{subsection.3.1.1}}
\citation{cgic}
\citation{preparataHong}
\citation{cgic}
\@writefile{loa}{\contentsline {algorithm}{\numberline {1}{\ignorespaces Jarvis March\relax }}{17}{algorithm.caption.15}}
\newlabel{pseudoJarvis}{{\M@TitleReference {1}{Jarvis March\relax }}{17}{Jarvis March\relax }{algorithm.caption.15}{}}
\@writefile{toc}{\contentsline {subsection}{\numberline {3.1.2}Slo\IeC {\v z}itost algoritmu}{17}{subsection.3.1.2}}
\newlabel{veta:jarvisslozitost}{{\M@TitleReference {3}{Slo\IeC {\v z}itost algoritmu}}{17}{}{veta.3}{}}
\newlabel{subsec:jarvispopis}{{\M@TitleReference {3.1.2}{Slo\IeC {\v z}itost algoritmu}}{17}{Složitost algoritmu}{veta.3}{}}
\@writefile{toc}{\contentsline {section}{\numberline {3.2}Algoritmus Divide and Conquer}{17}{section.3.2}}
\newlabel{sec:divide}{{\M@TitleReference {3.2}{Algoritmus Divide and Conquer}}{17}{Algoritmus Divide and Conquer}{section.3.2}{}}
\@writefile{toc}{\contentsline {subsection}{\numberline {3.2.1}Popis algoritmu}{17}{subsection.3.2.1}}
\citation{cgic}
\citation{cgic}
\citation{cgic}
\@writefile{lof}{\contentsline {figure}{\numberline {3.1}{\ignorespaces Slou\IeC {\v c}en\IeC {\'\i } dvou konvexn\IeC {\'\i }ch ob\IeC {\'a}lek\relax }}{18}{figure.caption.16}}
\newlabel{merge}{{\M@TitleReference {3.1}{Slou\IeC {\v c}en\IeC {\'\i } dvou konvexn\IeC {\'\i }ch ob\IeC {\'a}lek\relax }}{18}{Sloučení dvou konvexních obálek\relax }{figure.caption.16}{}}
\citation{preparataHong}
\@writefile{lof}{\contentsline {figure}{\numberline {3.2}{\ignorespaces Slou\IeC {\v c}en\IeC {\'\i } dvou konvexn\IeC {\'\i }ch ob\IeC {\'a}lek\relax }}{19}{figure.caption.17}}
\newlabel{obalovani}{{\M@TitleReference {3.2}{Slou\IeC {\v c}en\IeC {\'\i } dvou konvexn\IeC {\'\i }ch ob\IeC {\'a}lek\relax }}{19}{Sloučení dvou konvexních obálek\relax }{figure.caption.17}{}}
\@writefile{toc}{\contentsline {subsection}{\numberline {3.2.2}Detekce viditeln\IeC {\'y}ch st\IeC {\v e}n}{19}{subsection.3.2.2}}
\newlabel{viditelne}{{\M@TitleReference {15}{Detekce viditeln\IeC {\'y}ch st\IeC {\v e}n}}{19}{}{definition.15}{}}
\citation{cgic}
\citation{cichar}
\newlabel{nadpod}{{\M@TitleReference {16}{Detekce viditeln\IeC {\'y}ch st\IeC {\v e}n}}{20}{}{definition.16}{}}
\@writefile{toc}{\contentsline {section}{\numberline {3.3}Inkrement\IeC {\'a}ln\IeC {\'\i } algoritmus}{20}{section.3.3}}
\newlabel{sec:incremental}{{\M@TitleReference {3.3}{Inkrement\IeC {\'a}ln\IeC {\'\i } algoritmus}}{20}{Inkrementální algoritmus}{section.3.3}{}}
\@writefile{toc}{\contentsline {subsection}{\numberline {3.3.1}Popis algoritmu}{20}{subsection.3.3.1}}
\citation{cgaa}
\citation{cgaa}
\@writefile{lof}{\contentsline {figure}{\numberline {3.3}{\ignorespaces Horizont a viditeln\IeC {\'e} st\IeC {\v e}ny (b\IeC {\'\i }le)\relax }}{21}{figure.caption.18}}
\newlabel{horizon}{{\M@TitleReference {3.3}{Horizont a viditeln\IeC {\'e} st\IeC {\v e}ny (b\IeC {\'\i }le)\relax }}{21}{Horizont a viditelné stěny (bíle)\relax }{figure.caption.18}{}}
\@writefile{lof}{\contentsline {figure}{\numberline {3.4}{\ignorespaces Slou\IeC {\v c}en\IeC {\'\i } st\IeC {\v e}ny\relax }}{22}{figure.caption.19}}
\newlabel{facetMerge}{{\M@TitleReference {3.4}{Slou\IeC {\v c}en\IeC {\'\i } st\IeC {\v e}ny\relax }}{22}{Sloučení stěny\relax }{figure.caption.19}{}}
\@writefile{loa}{\contentsline {algorithm}{\numberline {2}{\ignorespaces Inkrement\IeC {\'a}ln\IeC {\'\i } algoritmus\relax }}{22}{algorithm.caption.20}}
\newlabel{alg:incremental}{{\M@TitleReference {2}{Inkrement\IeC {\'a}ln\IeC {\'\i } algoritmus\relax }}{22}{Inkrementální algoritmus\relax }{algorithm.caption.20}{}}
\citation{incremental}
\citation{qafch}
\@writefile{toc}{\contentsline {subsection}{\numberline {3.3.2}Anal\IeC {\'y}za slo\IeC {\v z}itosti}{23}{subsection.3.3.2}}
\@writefile{toc}{\contentsline {section}{\numberline {3.4}QuickHull}{23}{section.3.4}}
\newlabel{sec:quickhull}{{\M@TitleReference {3.4}{QuickHull}}{23}{QuickHull}{section.3.4}{}}
\@writefile{toc}{\contentsline {subsection}{\numberline {3.4.1}Popis algoritmu}{23}{subsection.3.4.1}}
\citation{wiki:float}
\citation{qafch}
\@writefile{lof}{\contentsline {figure}{\numberline {3.5}{\ignorespaces Chybn\IeC {\'e} st\IeC {\v e}ny p\IeC {\v r}ed slou\IeC {\v c}en\IeC {\'\i }m\relax }}{25}{figure.caption.22}}
\newlabel{quickhullmerge}{{\M@TitleReference {3.5}{Chybn\IeC {\'e} st\IeC {\v e}ny p\IeC {\v r}ed slou\IeC {\v c}en\IeC {\'\i }m\relax }}{25}{Chybné stěny před sloučením\relax }{figure.caption.22}{}}
\@writefile{lof}{\contentsline {figure}{\numberline {3.6}{\ignorespaces P\IeC {\v r}\IeC {\'\i }klad chybn\IeC {\'y}ch st\IeC {\v e}n\relax }}{25}{figure.caption.23}}
\newlabel{quickhullmergeFaces}{{\M@TitleReference {3.6}{P\IeC {\v r}\IeC {\'\i }klad chybn\IeC {\'y}ch st\IeC {\v e}n\relax }}{25}{Příklad chybných stěn\relax }{figure.caption.23}{}}
\citation{quicksort}
\citation{qafch}
\@writefile{lof}{\contentsline {figure}{\numberline {3.7}{\ignorespaces Test konvexnosti st\IeC {\v e}n $F_{Left}$ a $F_{Right}$\relax }}{26}{figure.caption.24}}
\newlabel{convexityTest}{{\M@TitleReference {3.7}{Test konvexnosti st\IeC {\v e}n $F_{Left}$ a $F_{Right}$\relax }}{26}{Test konvexnosti stěn $F_{Left}$ a $F_{Right}$\relax }{figure.caption.24}{}}
\@writefile{loa}{\contentsline {algorithm}{\numberline {3}{\ignorespaces QuickHull\relax }}{26}{algorithm.caption.25}}
\citation{chanminimalist}
\@writefile{toc}{\contentsline {subsection}{\numberline {3.4.2}Anal\IeC {\'y}za slo\IeC {\v z}itosti}{27}{subsection.3.4.2}}
\@writefile{toc}{\contentsline {section}{\numberline {3.5}Brute force}{27}{section.3.5}}
\newlabel{sec:brute}{{\M@TitleReference {3.5}{Brute force}}{27}{Brute force}{section.3.5}{}}
\@writefile{toc}{\contentsline {section}{\numberline {3.6}Dal\IeC {\v s}\IeC {\'\i } algoritmy}{27}{section.3.6}}
\citation{gccopt}
\@writefile{lof}{\addvspace {10pt}}
\@writefile{lot}{\addvspace {10pt}}
\@writefile{toc}{\contentsline {chapter}{\chapternumberline {4}Optimalizace}{29}{chapter.4}}
\@writefile{toc}{\contentsline {section}{\numberline {4.1}Obecn\IeC {\'e} optimalizace}{29}{section.4.1}}
\newlabel{opti:obecne}{{\M@TitleReference {4.1}{Obecn\IeC {\'e} optimalizace}}{29}{Obecné optimalizace}{section.4.1}{}}
\@writefile{toc}{\contentsline {subsection}{\numberline {4.1.1}Kompil\IeC {\'a}torov\IeC {\'e} optimalizace}{29}{subsection.4.1.1}}
\@writefile{toc}{\contentsline {section}{\numberline {4.2}Jarvis March}{30}{section.4.2}}
\newlabel{opti:jarvis}{{\M@TitleReference {4.2}{Jarvis March}}{30}{Jarvis March}{section.4.2}{}}
\@writefile{lof}{\contentsline {figure}{\numberline {4.1}{\ignorespaces Funkce kosinus\relax }}{30}{figure.caption.26}}
\newlabel{cosinus}{{\M@TitleReference {4.1}{Funkce kosinus\relax }}{30}{Funkce kosinus\relax }{figure.caption.26}{}}
\citation{mitura}
\citation{seidel}
\@writefile{toc}{\contentsline {section}{\numberline {4.3}Inkrement\IeC {\'a}ln\IeC {\'\i } algoritmus}{31}{section.4.3}}
\newlabel{opti:incremental}{{\M@TitleReference {4.3}{Inkrement\IeC {\'a}ln\IeC {\'\i } algoritmus}}{31}{Inkrementální algoritmus}{section.4.3}{}}
\@writefile{lof}{\contentsline {figure}{\numberline {4.2}{\ignorespaces Graf konflikt\IeC {\r u}\relax }}{32}{figure.caption.27}}
\newlabel{conflictGraph}{{\M@TitleReference {4.2}{Graf konflikt\IeC {\r u}\relax }}{32}{Graf konfliktů\relax }{figure.caption.27}{}}
\citation{cgaa}
\@writefile{lof}{\contentsline {figure}{\numberline {4.3}{\ignorespaces P\IeC {\v r}id\IeC {\'a}n\IeC {\'\i } nov\IeC {\'e} st\IeC {\v e}ny\relax }}{33}{figure.caption.28}}
\newlabel{conflictGraphUpdate}{{\M@TitleReference {4.3}{P\IeC {\v r}id\IeC {\'a}n\IeC {\'\i } nov\IeC {\'e} st\IeC {\v e}ny\relax }}{33}{Přidání nové stěny\relax }{figure.caption.28}{}}
\@writefile{toc}{\contentsline {subsection}{\numberline {4.3.1}Slo\IeC {\v z}itost algoritmu}{33}{subsection.4.3.1}}
\@writefile{toc}{\contentsline {section}{\numberline {4.4}Fat Planes}{33}{section.4.4}}
\newlabel{fatplanes}{{\M@TitleReference {4.4}{Fat Planes}}{33}{Fat Planes}{section.4.4}{}}
\citation{mitura}
\citation{qafch}
\@writefile{lof}{\contentsline {figure}{\numberline {4.4}{\ignorespaces Fat planes\relax }}{34}{figure.caption.29}}
\newlabel{fatplane}{{\M@TitleReference {4.4}{Fat planes\relax }}{34}{Fat planes\relax }{figure.caption.29}{}}
\@writefile{toc}{\contentsline {section}{\numberline {4.5}Paralelizace}{34}{section.4.5}}
\newlabel{opti:para}{{\M@TitleReference {4.5}{Paralelizace}}{34}{Paralelizace}{section.4.5}{}}
\@writefile{toc}{\contentsline {subsection}{\numberline {4.5.1}Jarvis march}{34}{subsection.4.5.1}}
\newlabel{para:jarvis}{{\M@TitleReference {4.5.1}{Jarvis march}}{34}{Jarvis march}{subsection.4.5.1}{}}
\@writefile{lof}{\contentsline {figure}{\numberline {4.5}{\ignorespaces Nalezen\IeC {\'\i } jedn\IeC {\'e} st\IeC {\v e}ny v\IeC {\'\i }cekr\IeC {\'a}t\relax }}{35}{figure.caption.30}}
\newlabel{obr:parallelFacet}{{\M@TitleReference {4.5}{Nalezen\IeC {\'\i } jedn\IeC {\'e} st\IeC {\v e}ny v\IeC {\'\i }cekr\IeC {\'a}t\relax }}{35}{Nalezení jedné stěny vícekrát\relax }{figure.caption.30}{}}
\@writefile{toc}{\contentsline {subsection}{\numberline {4.5.2}Algoritmus Divide and Conquer}{35}{subsection.4.5.2}}
\newlabel{para:divide}{{\M@TitleReference {4.5.2}{Algoritmus Divide and Conquer}}{35}{Algoritmus Divide and Conquer}{subsection.4.5.2}{}}
\@writefile{toc}{\contentsline {subsection}{\numberline {4.5.3}Inkrement\IeC {\'a}ln\IeC {\'\i } algoritmus}{36}{subsection.4.5.3}}
\newlabel{para:inc}{{\M@TitleReference {4.5.3}{Inkrement\IeC {\'a}ln\IeC {\'\i } algoritmus}}{36}{Inkrementální algoritmus}{subsection.4.5.3}{}}
\@writefile{toc}{\contentsline {subsection}{\numberline {4.5.4}QuickHull}{36}{subsection.4.5.4}}
\newlabel{para:quickhull}{{\M@TitleReference {4.5.4}{QuickHull}}{36}{QuickHull}{subsection.4.5.4}{}}
\citation{qhull}
\citation{cgal}
\citation{gcc}
\citation{qhull}
\@writefile{lof}{\addvspace {10pt}}
\@writefile{lot}{\addvspace {10pt}}
\@writefile{toc}{\contentsline {chapter}{\chapternumberline {5}V\IeC {\'y}sledky}{37}{chapter.5}}
\newlabel{chap:vysledky}{{\M@TitleReference {5}{V\IeC {\'y}sledky}}{37}{Výsledky}{chapter.5}{}}
\@writefile{toc}{\contentsline {section}{\numberline {5.1}Testovac\IeC {\'\i } data}{37}{section.5.1}}
\@writefile{toc}{\contentsline {section}{\numberline {5.2}Celkov\IeC {\'e} srovn\IeC {\'a}n\IeC {\'\i }}{38}{section.5.2}}
\@writefile{toc}{\contentsline {subsection}{\numberline {5.2.1}Testovan\IeC {\'e} algoritmy}{38}{subsection.5.2.1}}
\@writefile{toc}{\contentsline {subsection}{\numberline {5.2.2}Testovac\IeC {\'\i } data \IeC {\v c}.1}{39}{subsection.5.2.2}}
\@writefile{lof}{\contentsline {figure}{\numberline {5.1}{\ignorespaces Srovn\IeC {\'a}n\IeC {\'\i } v\IeC {\v s}ech algoritm\IeC {\r u} pro testovac\IeC {\'\i } data \IeC {\v c}. 1.\relax }}{39}{figure.caption.31}}
\newlabel{obr:test1-1}{{\M@TitleReference {5.1}{Srovn\IeC {\'a}n\IeC {\'\i } v\IeC {\v s}ech algoritm\IeC {\r u} pro testovac\IeC {\'\i } data \IeC {\v c}. 1.\relax }}{39}{Srovnání všech algoritmů pro testovací data č. 1.\relax }{figure.caption.31}{}}
\@writefile{toc}{\contentsline {subsection}{\numberline {5.2.3}Testovac\IeC {\'\i } data \IeC {\v c}.2}{39}{subsection.5.2.3}}
\@writefile{toc}{\contentsline {subsection}{\numberline {5.2.4}Testovac\IeC {\'\i } data \IeC {\v c}.3}{39}{subsection.5.2.4}}
\@writefile{lof}{\contentsline {figure}{\numberline {5.2}{\ignorespaces Srovn\IeC {\'a}n\IeC {\'\i } rychlej\IeC {\v s}\IeC {\'\i }ch algoritm\IeC {\r u} pro testovac\IeC {\'\i } data \IeC {\v c}. 1.\relax }}{40}{figure.caption.32}}
\newlabel{obr:test1-2}{{\M@TitleReference {5.2}{Srovn\IeC {\'a}n\IeC {\'\i } rychlej\IeC {\v s}\IeC {\'\i }ch algoritm\IeC {\r u} pro testovac\IeC {\'\i } data \IeC {\v c}. 1.\relax }}{40}{Srovnání rychlejších algoritmů pro testovací data č. 1.\relax }{figure.caption.32}{}}
\@writefile{lof}{\contentsline {figure}{\numberline {5.3}{\ignorespaces Srovn\IeC {\'a}n\IeC {\'\i } v\IeC {\v s}ech algoritm\IeC {\r u} pro testovac\IeC {\'\i } data \IeC {\v c}. 2.\relax }}{40}{figure.caption.33}}
\newlabel{obr:test2-1}{{\M@TitleReference {5.3}{Srovn\IeC {\'a}n\IeC {\'\i } v\IeC {\v s}ech algoritm\IeC {\r u} pro testovac\IeC {\'\i } data \IeC {\v c}. 2.\relax }}{40}{Srovnání všech algoritmů pro testovací data č. 2.\relax }{figure.caption.33}{}}
\@writefile{toc}{\contentsline {subsection}{\numberline {5.2.5}Testovac\IeC {\'\i } data \IeC {\v c}.4}{40}{subsection.5.2.5}}
\@writefile{lof}{\contentsline {figure}{\numberline {5.4}{\ignorespaces Srovn\IeC {\'a}n\IeC {\'\i } rychlej\IeC {\v s}\IeC {\'\i }ch algoritm\IeC {\r u} pro testovac\IeC {\'\i } data \IeC {\v c}. 2.\relax }}{41}{figure.caption.34}}
\newlabel{obr:test2-2}{{\M@TitleReference {5.4}{Srovn\IeC {\'a}n\IeC {\'\i } rychlej\IeC {\v s}\IeC {\'\i }ch algoritm\IeC {\r u} pro testovac\IeC {\'\i } data \IeC {\v c}. 2.\relax }}{41}{Srovnání rychlejších algoritmů pro testovací data č. 2.\relax }{figure.caption.34}{}}
\@writefile{lof}{\contentsline {figure}{\numberline {5.5}{\ignorespaces Srovn\IeC {\'a}n\IeC {\'\i } v\IeC {\v s}ech algoritm\IeC {\r u} pro testovac\IeC {\'\i } data \IeC {\v c}. 3.\relax }}{41}{figure.caption.35}}
\newlabel{obr:test3-1}{{\M@TitleReference {5.5}{Srovn\IeC {\'a}n\IeC {\'\i } v\IeC {\v s}ech algoritm\IeC {\r u} pro testovac\IeC {\'\i } data \IeC {\v c}. 3.\relax }}{41}{Srovnání všech algoritmů pro testovací data č. 3.\relax }{figure.caption.35}{}}
\@writefile{toc}{\contentsline {subsection}{\numberline {5.2.6}Vyhodnocen\IeC {\'\i }}{41}{subsection.5.2.6}}
\@writefile{lof}{\contentsline {figure}{\numberline {5.6}{\ignorespaces Srovn\IeC {\'a}n\IeC {\'\i } rychlej\IeC {\v s}\IeC {\'\i }ch algoritm\IeC {\r u} pro testovac\IeC {\'\i } data \IeC {\v c}. 3.\relax }}{42}{figure.caption.36}}
\newlabel{obr:test3-2}{{\M@TitleReference {5.6}{Srovn\IeC {\'a}n\IeC {\'\i } rychlej\IeC {\v s}\IeC {\'\i }ch algoritm\IeC {\r u} pro testovac\IeC {\'\i } data \IeC {\v c}. 3.\relax }}{42}{Srovnání rychlejších algoritmů pro testovací data č. 3.\relax }{figure.caption.36}{}}
\@writefile{lof}{\contentsline {figure}{\numberline {5.7}{\ignorespaces Srovn\IeC {\'a}n\IeC {\'\i } v\IeC {\v s}ech algoritm\IeC {\r u} pro testovac\IeC {\'\i } data \IeC {\v c}. 4.\relax }}{42}{figure.caption.37}}
\newlabel{obr:test4-1}{{\M@TitleReference {5.7}{Srovn\IeC {\'a}n\IeC {\'\i } v\IeC {\v s}ech algoritm\IeC {\r u} pro testovac\IeC {\'\i } data \IeC {\v c}. 4.\relax }}{42}{Srovnání všech algoritmů pro testovací data č. 4.\relax }{figure.caption.37}{}}
\@writefile{lof}{\contentsline {figure}{\numberline {5.8}{\ignorespaces Srovn\IeC {\'a}n\IeC {\'\i } rychlej\IeC {\v s}\IeC {\'\i }ch algoritm\IeC {\r u} pro testovac\IeC {\'\i } data \IeC {\v c}. 4.\relax }}{43}{figure.caption.38}}
\newlabel{obr:test4-2}{{\M@TitleReference {5.8}{Srovn\IeC {\'a}n\IeC {\'\i } rychlej\IeC {\v s}\IeC {\'\i }ch algoritm\IeC {\r u} pro testovac\IeC {\'\i } data \IeC {\v c}. 4.\relax }}{43}{Srovnání rychlejších algoritmů pro testovací data č. 4.\relax }{figure.caption.38}{}}
\@writefile{toc}{\contentsline {section}{\numberline {5.3}Paralelizace}{43}{section.5.3}}
\@writefile{lof}{\contentsline {figure}{\numberline {5.9}{\ignorespaces Srovn\IeC {\'a}n\IeC {\'\i } v\IeC {\v s}ech paraleln\IeC {\'\i }ch algoritm\IeC {\r u} pro 100 000 bod\IeC {\r u} le\IeC {\v z}\IeC {\'\i }c\IeC {\'\i }ch uvnit\IeC {\v r} koule.\relax }}{44}{figure.caption.39}}
\newlabel{obr:testPara1-1}{{\M@TitleReference {5.9}{Srovn\IeC {\'a}n\IeC {\'\i } v\IeC {\v s}ech paraleln\IeC {\'\i }ch algoritm\IeC {\r u} pro 100 000 bod\IeC {\r u} le\IeC {\v z}\IeC {\'\i }c\IeC {\'\i }ch uvnit\IeC {\v r} koule.\relax }}{44}{Srovnání všech paralelních algoritmů pro 100 000 bodů ležících uvnitř koule.\relax }{figure.caption.39}{}}
\@writefile{lof}{\contentsline {figure}{\numberline {5.10}{\ignorespaces Srovn\IeC {\'a}n\IeC {\'\i } rychlej\IeC {\v s}\IeC {\'\i }ch paraleln\IeC {\'\i }ch algoritm\IeC {\r u} pro 1 000 000 bod\IeC {\r u} le\IeC {\v z}\IeC {\'\i }c\IeC {\'\i }ch uvnit\IeC {\v r} koule.\relax }}{44}{figure.caption.40}}
\newlabel{obr:testPara1-2}{{\M@TitleReference {5.10}{Srovn\IeC {\'a}n\IeC {\'\i } rychlej\IeC {\v s}\IeC {\'\i }ch paraleln\IeC {\'\i }ch algoritm\IeC {\r u} pro 1 000 000 bod\IeC {\r u} le\IeC {\v z}\IeC {\'\i }c\IeC {\'\i }ch uvnit\IeC {\v r} koule.\relax }}{44}{Srovnání rychlejších paralelních algoritmů pro 1 000 000 bodů ležících uvnitř koule.\relax }{figure.caption.40}{}}
\@writefile{lof}{\contentsline {figure}{\numberline {5.11}{\ignorespaces Srovn\IeC {\'a}n\IeC {\'\i } zrychlen\IeC {\'\i } v\IeC {\v s}ech paraleln\IeC {\'\i }ch algoritm\IeC {\r u} pro 100 000 bod\IeC {\r u} le\IeC {\v z}\IeC {\'\i }c\IeC {\'\i }ch uvnit\IeC {\v r} koule.\relax }}{45}{figure.caption.41}}
\newlabel{obr:testPara1-1acc}{{\M@TitleReference {5.11}{Srovn\IeC {\'a}n\IeC {\'\i } zrychlen\IeC {\'\i } v\IeC {\v s}ech paraleln\IeC {\'\i }ch algoritm\IeC {\r u} pro 100 000 bod\IeC {\r u} le\IeC {\v z}\IeC {\'\i }c\IeC {\'\i }ch uvnit\IeC {\v r} koule.\relax }}{45}{Srovnání zrychlení všech paralelních algoritmů pro 100 000 bodů ležících uvnitř koule.\relax }{figure.caption.41}{}}
\@writefile{lof}{\contentsline {figure}{\numberline {5.12}{\ignorespaces Srovn\IeC {\'a}n\IeC {\'\i } zrychlen\IeC {\'\i } rychlej\IeC {\v s}\IeC {\'\i }ch paraleln\IeC {\'\i }ch algoritm\IeC {\r u} pro 1 000 000 bod\IeC {\r u} le\IeC {\v z}\IeC {\'\i }c\IeC {\'\i }ch uvnit\IeC {\v r} koule.\relax }}{45}{figure.caption.42}}
\newlabel{obr:testPara1-2acc}{{\M@TitleReference {5.12}{Srovn\IeC {\'a}n\IeC {\'\i } zrychlen\IeC {\'\i } rychlej\IeC {\v s}\IeC {\'\i }ch paraleln\IeC {\'\i }ch algoritm\IeC {\r u} pro 1 000 000 bod\IeC {\r u} le\IeC {\v z}\IeC {\'\i }c\IeC {\'\i }ch uvnit\IeC {\v r} koule.\relax }}{45}{Srovnání zrychlení rychlejších paralelních algoritmů pro 1 000 000 bodů ležících uvnitř koule.\relax }{figure.caption.42}{}}
\@writefile{lof}{\contentsline {figure}{\numberline {5.13}{\ignorespaces Srovn\IeC {\'a}n\IeC {\'\i } v\IeC {\v s}ech paraleln\IeC {\'\i }ch algoritm\IeC {\r u} pro 10 000 bod\IeC {\r u} le\IeC {\v z}\IeC {\'\i }c\IeC {\'\i }ch na povrchu koule.\relax }}{46}{figure.caption.43}}
\newlabel{obr:testPara2-1}{{\M@TitleReference {5.13}{Srovn\IeC {\'a}n\IeC {\'\i } v\IeC {\v s}ech paraleln\IeC {\'\i }ch algoritm\IeC {\r u} pro 10 000 bod\IeC {\r u} le\IeC {\v z}\IeC {\'\i }c\IeC {\'\i }ch na povrchu koule.\relax }}{46}{Srovnání všech paralelních algoritmů pro 10 000 bodů ležících na povrchu koule.\relax }{figure.caption.43}{}}
\@writefile{lof}{\contentsline {figure}{\numberline {5.14}{\ignorespaces Doba trv\IeC {\'a}n\IeC {\'\i } paraleln\IeC {\'\i }ho algoritmu QuickHull pro 100 000 bod\IeC {\r u} le\IeC {\v z}\IeC {\'\i }c\IeC {\'\i }ch na povrchu koule.\relax }}{47}{figure.caption.44}}
\newlabel{obr:testPara2-2}{{\M@TitleReference {5.14}{Doba trv\IeC {\'a}n\IeC {\'\i } paraleln\IeC {\'\i }ho algoritmu QuickHull pro 100 000 bod\IeC {\r u} le\IeC {\v z}\IeC {\'\i }c\IeC {\'\i }ch na povrchu koule.\relax }}{47}{Doba trvání paralelního algoritmu QuickHull pro 100 000 bodů ležících na povrchu koule.\relax }{figure.caption.44}{}}
\@writefile{lof}{\contentsline {figure}{\numberline {5.15}{\ignorespaces Srovn\IeC {\'a}n\IeC {\'\i } zrychlen\IeC {\'\i } v\IeC {\v s}ech paraleln\IeC {\'\i }ch algoritm\IeC {\r u} pro 10 000 bod\IeC {\r u} le\IeC {\v z}\IeC {\'\i }c\IeC {\'\i }ch na povrchu koule.\relax }}{47}{figure.caption.45}}
\newlabel{obr:testPara2-1acc}{{\M@TitleReference {5.15}{Srovn\IeC {\'a}n\IeC {\'\i } zrychlen\IeC {\'\i } v\IeC {\v s}ech paraleln\IeC {\'\i }ch algoritm\IeC {\r u} pro 10 000 bod\IeC {\r u} le\IeC {\v z}\IeC {\'\i }c\IeC {\'\i }ch na povrchu koule.\relax }}{47}{Srovnání zrychlení všech paralelních algoritmů pro 10 000 bodů ležících na povrchu koule.\relax }{figure.caption.45}{}}
\@writefile{lof}{\contentsline {figure}{\numberline {5.16}{\ignorespaces Zrychlen\IeC {\'\i } paraleln\IeC {\'\i }ho algoritmu QuickHull pro 100 000 bod\IeC {\r u} le\IeC {\v z}\IeC {\'\i }c\IeC {\'\i }ch na povrchu koule.\relax }}{48}{figure.caption.46}}
\newlabel{obr:testPara2-2acc}{{\M@TitleReference {5.16}{Zrychlen\IeC {\'\i } paraleln\IeC {\'\i }ho algoritmu QuickHull pro 100 000 bod\IeC {\r u} le\IeC {\v z}\IeC {\'\i }c\IeC {\'\i }ch na povrchu koule.\relax }}{48}{Zrychlení paralelního algoritmu QuickHull pro 100 000 bodů ležících na povrchu koule.\relax }{figure.caption.46}{}}
\citation{mitura}
\citation{qhull}
\citation{cgal}
\bibstyle{csn690}
\bibdata{mybibliographyfile}
\@writefile{lof}{\addvspace {10pt}}
\@writefile{lot}{\addvspace {10pt}}
\@writefile{toc}{\contentsline {chapter}{Z{\' a}v{\v e}r}{49}{chapter*.47}}
\bibcite{wiki:Delaunay_triangulation}{1}
\bibcite{wiki:Voronoi_diagram}{2}
\bibcite{algsincompgeom}{3}
\bibcite{cgaithra}{4}
\bibcite{cgic}{5}
\bibcite{cgai}{6}
\bibcite{graham}{7}
\bibcite{jarvis}{8}
\bibcite{tupcha}{9}
\bibcite{mitura}{10}
\@writefile{toc}{\contentsline {chapter}{Literatura}{51}{section*.49}}
\bibcite{cgaa}{11}
\bibcite{convex2D3D}{12}
\bibcite{euclid}{13}
\bibcite{chcas}{14}
\bibcite{cpp:stl}{15}
\bibcite{cpp:algorithm}{16}
\bibcite{cpp:math}{17}
\bibcite{qhull}{18}
\bibcite{cgal}{19}
\bibcite{halfedge}{20}
\bibcite{quadedge}{21}
\bibcite{afcp}{22}
\bibcite{preparataHong}{23}
\bibcite{cichar}{24}
\bibcite{incremental}{25}
\bibcite{qafch}{26}
\bibcite{wiki:float}{27}
\bibcite{quicksort}{28}
\bibcite{chanminimalist}{29}
\bibcite{gccopt}{30}
\bibcite{seidel}{31}
\bibcite{gcc}{32}
\@writefile{lof}{\addvspace {10pt}}
\@writefile{lot}{\addvspace {10pt}}
\@writefile{toc}{\contentsline {appendix}{\chapternumberline {A}Seznam pou\IeC {\v z}it\IeC {\'y}ch zkratek}{55}{appendix.A}}
\@writefile{lof}{\addvspace {10pt}}
\@writefile{lot}{\addvspace {10pt}}
\@writefile{toc}{\contentsline {appendix}{\chapternumberline {B}Instala\IeC {\v c}n\IeC {\'\i } p\IeC {\v r}\IeC {\'\i }ru\IeC {\v c}ka}{57}{appendix.B}}
\@writefile{toc}{\contentsline {section}{\numberline {B.1}Po\IeC {\v z}adavky}{57}{section.B.1}}
\@writefile{toc}{\contentsline {section}{\numberline {B.2}Instalace a pou\IeC {\v z}it\IeC {\'\i }}{57}{section.B.2}}
\@writefile{toc}{\contentsline {section}{\numberline {B.3}Form\IeC {\'a}t vstupu a v\IeC {\'y}stupu}{58}{section.B.3}}
\@writefile{lof}{\addvspace {10pt}}
\@writefile{lot}{\addvspace {10pt}}
\@writefile{toc}{\contentsline {appendix}{\chapternumberline {C}Obsah p\IeC {\v r}ilo\IeC {\v z}en\IeC {\'e}ho CD}{61}{appendix.C}}
\memsetcounter{lastsheet}{75}
\memsetcounter{lastpage}{61}
