\BOOKMARK [0][-]{chapter*.5}{\332vod}{}% 1
\BOOKMARK [1][-]{section*.6}{C\355l pr\341ce}{chapter*.5}% 2
\BOOKMARK [1][-]{section*.7}{Struktura pr\341ce}{chapter*.5}% 3
\BOOKMARK [0][-]{chapter.1}{Teorie}{}% 4
\BOOKMARK [1][-]{section.1.1}{Z\341kladn\355 pojmy}{chapter.1}% 5
\BOOKMARK [1][-]{section.1.2}{Konvexn\355 ob\341lka}{chapter.1}% 6
\BOOKMARK [1][-]{section.1.3}{Doln\355 hranice slo\236itosti}{chapter.1}% 7
\BOOKMARK [0][-]{chapter.2}{Softwarov\351 a hardwarov\351 aspekty}{}% 8
\BOOKMARK [1][-]{section.2.1}{Pou\236it\351 technologie}{chapter.2}% 9
\BOOKMARK [1][-]{section.2.2}{Existuj\355c\355 re\235en\355}{chapter.2}% 10
\BOOKMARK [1][-]{section.2.3}{Datov\351 struktury}{chapter.2}% 11
\BOOKMARK [0][-]{chapter.3}{Algoritmy pro nalezen\355 konvexn\355 ob\341lky ve 3D}{}% 12
\BOOKMARK [1][-]{section.3.1}{Jarvis March}{chapter.3}% 13
\BOOKMARK [1][-]{section.3.2}{Algoritmus Divide and Conquer}{chapter.3}% 14
\BOOKMARK [1][-]{section.3.3}{Inkrement\341ln\355 algoritmus}{chapter.3}% 15
\BOOKMARK [1][-]{section.3.4}{QuickHull}{chapter.3}% 16
\BOOKMARK [1][-]{section.3.5}{Dal\235\355 algoritmy}{chapter.3}% 17
\BOOKMARK [0][-]{chapter.4}{Optimalizace}{}% 18
\BOOKMARK [1][-]{section.4.1}{Obecn\351 optimalizace}{chapter.4}% 19
\BOOKMARK [1][-]{section.4.2}{Jarvis March}{chapter.4}% 20
\BOOKMARK [1][-]{section.4.3}{Inkrement\341ln\355 algoritmus}{chapter.4}% 21
\BOOKMARK [1][-]{section.4.4}{QuickHull}{chapter.4}% 22
\BOOKMARK [1][-]{section.4.5}{Fat Planes}{chapter.4}% 23
\BOOKMARK [1][-]{section.4.6}{Mo\236nosti paralelizace}{chapter.4}% 24
\BOOKMARK [0][-]{chapter.5}{V\375sledky}{}% 25
\BOOKMARK [1][-]{section.5.1}{Testovac\355 data}{chapter.5}% 26
\BOOKMARK [1][-]{section.5.2}{Jednotliv\351 algoritmy}{chapter.5}% 27
\BOOKMARK [1][-]{section.5.3}{Celkov\351 porovn\341n\355}{chapter.5}% 28
\BOOKMARK [0][-]{chapter*.9}{Z\341ver}{}% 29
\BOOKMARK [0][-]{section*.11}{Literatura}{}% 30
\BOOKMARK [0][-]{appendix.A}{Seznam pou\236it\375ch zkratek}{}% 31
\BOOKMARK [0][-]{appendix.B}{Instalacn\355 pr\355rucka}{}% 32
\BOOKMARK [1][-]{section.B.1}{Po\236adavky}{appendix.B}% 33
\BOOKMARK [1][-]{section.B.2}{Instalace a pou\236it\355}{appendix.B}% 34
\BOOKMARK [1][-]{section.B.3}{Form\341t vstupu a v\375stupu}{appendix.B}% 35
\BOOKMARK [0][-]{appendix.C}{Obsah prilo\236en\351ho CD}{}% 36
