<?xml version="1.0" encoding="UTF-8" standalone="no"?>
<!-- Created with Inkscape (http://www.inkscape.org/) -->

<svg
   xmlns:dc="http://purl.org/dc/elements/1.1/"
   xmlns:cc="http://creativecommons.org/ns#"
   xmlns:rdf="http://www.w3.org/1999/02/22-rdf-syntax-ns#"
   xmlns:svg="http://www.w3.org/2000/svg"
   xmlns="http://www.w3.org/2000/svg"
   xmlns:sodipodi="http://sodipodi.sourceforge.net/DTD/sodipodi-0.dtd"
   xmlns:inkscape="http://www.inkscape.org/namespaces/inkscape"
   width="467.12958"
   height="186.12239"
   id="svg4062"
   version="1.1"
   inkscape:version="0.48.4 r9939"
   sodipodi:docname="New document 15">
  <defs
     id="defs3">
    <inkscape:path-effect
       effect="spiro"
       id="path-effect4070"
       is_visible="true" />
    <inkscape:path-effect
       effect="spiro"
       id="path-effect4070-0"
       is_visible="true" />
  </defs>
  <sodipodi:namedview
     inkscape:document-units="mm"
     id="base"
     pagecolor="#ffffff"
     bordercolor="#666666"
     borderopacity="1.0"
     inkscape:pageopacity="0.0"
     inkscape:pageshadow="2"
     inkscape:zoom="1.4"
     inkscape:cx="323.51605"
     inkscape:cy="80.917601"
     inkscape:current-layer="layer1"
     showgrid="false"
     units="mm"
     fit-margin-top="0"
     fit-margin-left="0"
     fit-margin-right="0"
     fit-margin-bottom="0"
     inkscape:window-width="1366"
     inkscape:window-height="713"
     inkscape:window-x="0"
     inkscape:window-y="31"
     inkscape:window-maximized="1" />
  <metadata
     id="metadata4">
    <rdf:RDF>
      <cc:Work
         rdf:about="">
        <dc:format>image/svg+xml</dc:format>
        <dc:type
           rdf:resource="http://purl.org/dc/dcmitype/StillImage" />
        <dc:title></dc:title>
      </cc:Work>
    </rdf:RDF>
  </metadata>
  <g
     inkscape:label="Layer 1"
     inkscape:groupmode="layer"
     id="layer1"
     transform="translate(-1.2501026,-0.92622178)">
    <path
       style="fill:#000000;fill-opacity:0.06467662;stroke:#000000;stroke-width:1.47587216;stroke-linecap:butt;stroke-linejoin:miter;stroke-miterlimit:4;stroke-opacity:1;stroke-dasharray:none"
       d="M 55.889126,163.70352 174.74794,118.32439 192.71497,53.280979 142.96012,18.490322 33.77586,60.84417 1.9880387,122.86231 55.889126,163.70352"
       id="path4068"
       inkscape:path-effect="#path-effect4070"
       inkscape:original-d="M 55.889126,163.70352 174.74794,118.32439 192.71497,53.280979 142.96012,18.490322 33.77586,60.84417 1.9880387,122.86231 z"
       inkscape:connector-curvature="0" />
    <path
       style="fill:none;stroke:#000000;stroke-width:1.32879198;stroke-linecap:butt;stroke-linejoin:miter;stroke-miterlimit:4;stroke-opacity:1;stroke-dasharray:none"
       d="M 27.921924,174.32257 208.61353,105.65791"
       id="path4580"
       inkscape:connector-curvature="0" />
    <text
       xml:space="preserve"
       style="font-size:11.45082855px;font-style:normal;font-weight:bold;line-height:125%;letter-spacing:0px;word-spacing:0px;fill:#000000;fill-opacity:1;stroke:none;font-family:Sans;-inkscape-font-specification:Sans Bold"
       x="220.77226"
       y="104.07318"
       id="text4582"
       sodipodi:linespacing="125%"
       transform="scale(0.95587043,1.0461669)"><tspan
         sodipodi:role="line"
         id="tspan4584"
         x="220.77226"
         y="104.07318">h</tspan></text>
    <text
       xml:space="preserve"
       style="font-size:11.45082855px;font-style:normal;font-weight:bold;line-height:125%;letter-spacing:0px;word-spacing:0px;fill:#000000;fill-opacity:1;stroke:none;font-family:Sans;-inkscape-font-specification:Sans Bold"
       x="205.92757"
       y="126.31507"
       id="text4582-6"
       sodipodi:linespacing="125%"
       transform="scale(0.95587043,1.0461669)"><tspan
         sodipodi:role="line"
         id="tspan4584-0"
         x="205.92757"
         y="126.31507">h</tspan></text>
    <text
       xml:space="preserve"
       style="font-size:11.45082855px;font-style:normal;font-weight:normal;line-height:125%;letter-spacing:0px;word-spacing:0px;fill:#000000;fill-opacity:1;stroke:none;font-family:Sans"
       x="212.25996"
       y="120.92765"
       id="text4607"
       sodipodi:linespacing="125%"
       transform="scale(0.95587043,1.0461669)"><tspan
         sodipodi:role="line"
         id="tspan4609"
         x="212.25996"
         y="120.92765">-</tspan><tspan
         sodipodi:role="line"
         x="212.25996"
         y="135.24118"
         id="tspan4611" /></text>
    <text
       xml:space="preserve"
       style="font-size:11.45082855px;font-style:normal;font-weight:bold;line-height:125%;letter-spacing:0px;word-spacing:0px;fill:#000000;fill-opacity:1;stroke:none;font-family:Sans;-inkscape-font-specification:Sans Bold"
       x="203.32567"
       y="92.461739"
       id="text4582-6-1"
       sodipodi:linespacing="125%"
       transform="scale(0.95587043,1.0461669)"><tspan
         sodipodi:role="line"
         id="tspan4584-0-8"
         x="203.32567"
         y="92.461739">h</tspan></text>
    <text
       xml:space="preserve"
       style="font-size:11.45082855px;font-style:normal;font-weight:normal;line-height:125%;letter-spacing:0px;word-spacing:0px;fill:#000000;fill-opacity:1;stroke:none;font-family:Sans"
       x="209.6581"
       y="87.074326"
       id="text4607-7"
       sodipodi:linespacing="125%"
       transform="scale(0.95587043,1.0461669)"><tspan
         sodipodi:role="line"
         id="tspan4609-9"
         x="209.6581"
         y="87.074326">+</tspan><tspan
         sodipodi:role="line"
         x="209.6581"
         y="101.38786"
         id="tspan4611-2" /></text>
    <text
       xml:space="preserve"
       style="font-size:15.74488926px;font-style:normal;font-weight:normal;line-height:125%;letter-spacing:0px;word-spacing:0px;fill:#000000;fill-opacity:1;stroke:none;font-family:Sans;-inkscape-font-specification:Sans"
       x="72.524933"
       y="109.69637"
       id="text4652"
       sodipodi:linespacing="125%"
       transform="scale(0.95587043,1.0461669)"><tspan
         sodipodi:role="line"
         id="tspan4654"
         x="72.524933"
         y="109.69637">p</tspan></text>
    <flowRoot
       xml:space="preserve"
       id="flowRoot4656"
       style="font-size:16px;font-style:normal;font-weight:normal;line-height:125%;letter-spacing:0px;word-spacing:0px;fill:#000000;fill-opacity:1;stroke:none;font-family:Sans"
       transform="translate(-54.285714,-9.2857143)"><flowRegion
         id="flowRegion4658"><rect
           id="rect4660"
           width="62.142857"
           height="27.857143"
           x="117.14286"
           y="112.36218" /></flowRegion><flowPara
         id="flowPara4662"></flowPara></flowRoot>    <path
       style="fill:#000000;fill-opacity:0.06467662;stroke:#000000;stroke-width:1.25540984;stroke-linecap:butt;stroke-linejoin:miter;stroke-miterlimit:4;stroke-opacity:1;stroke-dasharray:none"
       d="M 434.89081,118.92336 399.88593,18.433719 344.21098,1.5539267 l -31.9226,40.5036143 32.7344,92.329659 52.55634,28.32358 37.31169,-43.78742"
       id="path4068-2"
       inkscape:path-effect="#path-effect4070-0"
       inkscape:original-d="M 434.89081,118.92336 399.88593,18.433719 344.21098,1.5539267 l -31.9226,40.5036143 32.7344,92.329659 52.55634,28.32358 z"
       inkscape:connector-curvature="0" />
    <path
       style="fill:none;stroke:#000000;stroke-width:1.48385549;stroke-linecap:butt;stroke-linejoin:miter;stroke-miterlimit:4;stroke-opacity:1;stroke-dasharray:none"
       d="M 329.86267,186.30669 457.06894,142.98597"
       id="path4580-3"
       inkscape:connector-curvature="0" />
    <text
       xml:space="preserve"
       style="font-size:13.50893593px;font-style:normal;font-weight:bold;line-height:125%;letter-spacing:0px;word-spacing:0px;fill:#000000;fill-opacity:1;stroke:none;font-family:Sans;-inkscape-font-specification:Sans Bold"
       x="455.35013"
       y="148.33514"
       id="text4582-7"
       sodipodi:linespacing="125%"
       transform="scale(1.0096306,0.99046127)"><tspan
         sodipodi:role="line"
         id="tspan4584-5"
         x="455.35013"
         y="148.33514">h</tspan></text>
    <text
       xml:space="preserve"
       style="font-size:13.50893593px;font-style:normal;font-weight:bold;line-height:125%;letter-spacing:0px;word-spacing:0px;fill:#000000;fill-opacity:1;stroke:none;font-family:Sans;-inkscape-font-specification:Sans Bold"
       x="437.83731"
       y="174.57466"
       id="text4582-6-9"
       sodipodi:linespacing="125%"
       transform="scale(1.0096306,0.99046127)"><tspan
         sodipodi:role="line"
         id="tspan4584-0-2"
         x="437.83731"
         y="174.57466">h</tspan></text>
    <text
       xml:space="preserve"
       style="font-size:13.50893593px;font-style:normal;font-weight:normal;line-height:125%;letter-spacing:0px;word-spacing:0px;fill:#000000;fill-opacity:1;stroke:none;font-family:Sans"
       x="445.30789"
       y="168.21893"
       id="text4607-2"
       sodipodi:linespacing="125%"
       transform="scale(1.0096306,0.99046127)"><tspan
         sodipodi:role="line"
         id="tspan4609-8"
         x="445.30789"
         y="168.21893">-</tspan><tspan
         sodipodi:role="line"
         x="445.30789"
         y="185.1051"
         id="tspan4611-9" /></text>
    <text
       xml:space="preserve"
       style="font-size:13.50893593px;font-style:normal;font-weight:bold;line-height:125%;letter-spacing:0px;word-spacing:0px;fill:#000000;fill-opacity:1;stroke:none;font-family:Sans;-inkscape-font-specification:Sans Bold"
       x="434.76779"
       y="134.63672"
       id="text4582-6-1-7"
       sodipodi:linespacing="125%"
       transform="scale(1.0096306,0.99046127)"><tspan
         sodipodi:role="line"
         id="tspan4584-0-8-3"
         x="434.76779"
         y="134.63672">h</tspan></text>
    <text
       xml:space="preserve"
       style="font-size:13.50893593px;font-style:normal;font-weight:normal;line-height:125%;letter-spacing:0px;word-spacing:0px;fill:#000000;fill-opacity:1;stroke:none;font-family:Sans"
       x="442.23837"
       y="128.28101"
       id="text4607-7-6"
       sodipodi:linespacing="125%"
       transform="scale(1.0096306,0.99046127)"><tspan
         sodipodi:role="line"
         id="tspan4609-9-1"
         x="442.23837"
         y="128.28101">+</tspan><tspan
         sodipodi:role="line"
         x="442.23837"
         y="145.16718"
         id="tspan4611-2-2" /></text>
    <text
       xml:space="preserve"
       style="font-size:18.57478714px;font-style:normal;font-weight:normal;line-height:125%;letter-spacing:0px;word-spacing:0px;fill:#000000;fill-opacity:1;stroke:none;font-family:Sans;-inkscape-font-specification:Sans"
       x="355.84232"
       y="118.18127"
       id="text4652-9"
       sodipodi:linespacing="125%"
       transform="scale(1.0096306,0.99046127)"><tspan
         sodipodi:role="line"
         id="tspan4654-3"
         x="355.84232"
         y="118.18127">p</tspan></text>
  </g>
</svg>
