\relax 
\providecommand*{\memsetcounter}[2]{}
\catcode`"\active
\catcode`-\active
\providecommand\HyperFirstAtBeginDocument{\AtBeginDocument}
\HyperFirstAtBeginDocument{\ifx\hyper@anchor\@undefined
\global\let\oldcontentsline\contentsline
\gdef\contentsline#1#2#3#4{\oldcontentsline{#1}{#2}{#3}}
\global\let\oldnewlabel\newlabel
\gdef\newlabel#1#2{\newlabelxx{#1}#2}
\gdef\newlabelxx#1#2#3#4#5#6{\oldnewlabel{#1}{{#2}{#3}}}
\AtEndDocument{\ifx\hyper@anchor\@undefined
\let\contentsline\oldcontentsline
\let\newlabel\oldnewlabel
\fi}
\fi}
\global\let\hyper@last\relax 
\gdef\HyperFirstAtBeginDocument#1{#1}
\providecommand\HyField@AuxAddToFields[1]{}
\select@language{czech}
\@writefile{toc}{\select@language{czech}}
\@writefile{lof}{\select@language{czech}}
\@writefile{lot}{\select@language{czech}}
\select@language{czech}
\@writefile{toc}{\select@language{czech}}
\@writefile{lof}{\select@language{czech}}
\@writefile{lot}{\select@language{czech}}
\@writefile{toc}{\contentsline {subsection}{Odkaz na tuto pr{\' a}ci}{viii}{section*.1}}
\citation{wiki:Delaunay_triangulation}
\citation{wiki:Voronoi_diagram}
\citation{algsincompgeom}
\citation{cgaithra}
\citation{cgic}
\citation{cgai}
\citation{graham}
\citation{jarvis}
\citation{tupcha}
\@writefile{lof}{\addvspace {10pt}}
\@writefile{lot}{\addvspace {10pt}}
\@writefile{toc}{\contentsline {chapter}{{\' U}vod}{3}{chapter*.5}}
\@writefile{toc}{\contentsline {section}{C\IeC {\'\i }l pr\IeC {\'a}ce}{3}{section*.6}}
\@writefile{toc}{\contentsline {section}{Struktura pr\IeC {\'a}ce}{4}{section*.7}}
\citation{mitura}
\citation{cgic}
\citation{cgaa}
\@writefile{lof}{\addvspace {10pt}}
\@writefile{lot}{\addvspace {10pt}}
\@writefile{toc}{\contentsline {chapter}{\chapternumberline {1}Teorie}{5}{chapter.1}}
\newlabel{chap:teorie}{{\M@TitleReference {1}{Teorie}}{5}{Teorie\relax }{chapter.1}{}}
\@writefile{toc}{\contentsline {section}{\numberline {1.1}Z\IeC {\'a}kladn\IeC {\'\i } pojmy}{5}{section.1.1}}
\citation{convexNonConvex}
\citation{convexNonConvex}
\citation{convex2D3D}
\citation{convex2D3D}
\citation{felkel}
\citation{felkel}
\@writefile{lof}{\contentsline {figure}{\numberline {1.1}{\ignorespaces Konvexn\IeC {\'\i } a nekonvexn\IeC {\'\i } mno\IeC {\v z}ina v $\mathbb  {R}^2$}}{6}{figure.1.1}}
\newlabel{connoncon}{{\M@TitleReference {1.1}{Konvexn\IeC {\'\i } a nekonvexn\IeC {\'\i } mno\IeC {\v z}ina v $\mathbb  {R}^2$}}{6}{Konvexní a nekonvexní množina v $\mathbb {R}^2$\relax }{figure.1.1}{}}
\@writefile{toc}{\contentsline {section}{\numberline {1.2}Konvexn\IeC {\'\i } ob\IeC {\'a}lka}{6}{section.1.2}}
\newlabel{nadrovina}{{\M@TitleReference {5}{Konvexn\IeC {\'\i } ob\IeC {\'a}lka}}{6}{\relax }{definition.5}{}}
\citation{felkel}
\citation{felkel}
\citation{chcas}
\@writefile{lof}{\contentsline {figure}{\numberline {1.2}{\ignorespaces Konvexn\IeC {\'\i } ob\IeC {\'a}lka v $\mathbb  {R}^2$ a $\mathbb  {R}^3$}}{7}{figure.1.2}}
\newlabel{qhull2d3d}{{\M@TitleReference {1.2}{Konvexn\IeC {\'\i } ob\IeC {\'a}lka v $\mathbb  {R}^2$ a $\mathbb  {R}^3$}}{7}{Konvexní obálka v $\mathbb {R}^2$ a $\mathbb {R}^3$\relax }{figure.1.2}{}}
\@writefile{lof}{\contentsline {figure}{\numberline {1.3}{\ignorespaces Nadrovina a jej\IeC {\'\i } poloprostory v $\mathbb  {R}^2$}}{7}{figure.1.3}}
\newlabel{hyperplane}{{\M@TitleReference {1.3}{Nadrovina a jej\IeC {\'\i } poloprostory v $\mathbb  {R}^2$}}{7}{Nadrovina a její poloprostory v $\mathbb {R}^2$\relax }{figure.1.3}{}}
\newlabel{def:simplex}{{\M@TitleReference {7}{Konvexn\IeC {\'\i } ob\IeC {\'a}lka}}{7}{\relax }{definition.7}{}}
\newlabel{stena}{{\M@TitleReference {8}{Konvexn\IeC {\'\i } ob\IeC {\'a}lka}}{7}{\relax }{definition.8}{}}
\citation{felkel}
\citation{felkel}
\citation{felkel}
\citation{felkel}
\@writefile{lof}{\contentsline {figure}{\numberline {1.4}{\ignorespaces Simplexy v prostorech $\mathbb  {R}^1$, $\mathbb  {R}^2$ a $\mathbb  {R}^3$}}{8}{figure.1.4}}
\newlabel{simplex}{{\M@TitleReference {1.4}{Simplexy v prostorech $\mathbb  {R}^1$, $\mathbb  {R}^2$ a $\mathbb  {R}^3$}}{8}{Simplexy v prostorech $\mathbb {R}^1$, $\mathbb {R}^2$ a $\mathbb {R}^3$\relax }{figure.1.4}{}}
\@writefile{lof}{\contentsline {figure}{\numberline {1.5}{\ignorespaces Topologie 3-simplexu}}{8}{figure.1.5}}
\newlabel{topology}{{\M@TitleReference {1.5}{Topologie 3-simplexu}}{8}{Topologie 3-simplexu\relax }{figure.1.5}{}}
\citation{cgic}
\citation{mitura}
\newlabel{veta:euler}{{\M@TitleReference {1}{Konvexn\IeC {\'\i } ob\IeC {\'a}lka}}{9}{Eulerova rovnice\relax }{veta.1}{}}
\newlabel{eq:euler}{{1.1}{9}{Eulerova rovnice\relax }{equation.1.2.1}{}}
\newlabel{veta:eulerdusl}{{\M@TitleReference {2}{Konvexn\IeC {\'\i } ob\IeC {\'a}lka}}{9}{\relax }{veta.2}{}}
\newlabel{p11}{{1.2}{9}{Konvexní obálka\relax }{equation.1.2.2}{}}
\newlabel{dusl:mnohosten}{{\M@TitleReference {1}{Konvexn\IeC {\'\i } ob\IeC {\'a}lka}}{9}{\relax }{dusledek.1}{}}
\@writefile{toc}{\contentsline {section}{\numberline {1.3}Doln\IeC {\'\i } hranice slo\IeC {\v z}itosti}{10}{section.1.3}}
\citation{mitura}
\citation{cpp:stl}
\citation{cpp:algorithm}
\citation{cpp:math}
\citation{mitura}
\@writefile{lof}{\addvspace {10pt}}
\@writefile{lot}{\addvspace {10pt}}
\@writefile{toc}{\contentsline {chapter}{\chapternumberline {2}Softwarov\IeC {\'e} a hardwarov\IeC {\'e} aspekty}{11}{chapter.2}}
\@writefile{toc}{\contentsline {section}{\numberline {2.1}Pou\IeC {\v z}it\IeC {\'e} technologie}{11}{section.2.1}}
\@writefile{toc}{\contentsline {subsection}{\numberline {2.1.1}Programovac\IeC {\'\i } jazyk}{11}{subsection.2.1.1}}
\@writefile{toc}{\contentsline {subsection}{\numberline {2.1.2}Pou\IeC {\v z}it\IeC {\'e} knihovny}{11}{subsection.2.1.2}}
\@writefile{toc}{\contentsline {subsection}{\numberline {2.1.3}OpenMP}{12}{subsection.2.1.3}}
\@writefile{toc}{\contentsline {paragraph}{Mo\IeC {\v z}nosti OpenMP}{12}{section*.8}}
\citation{qhull}
\citation{cgal}
\citation{qhulljava}
\citation{cgic}
\citation{cpp:stl}
\@writefile{toc}{\contentsline {section}{\numberline {2.2}Existuj\IeC {\'\i }c\IeC {\'\i } \IeC {\v r}e\IeC {\v s}en\IeC {\'\i }}{13}{section.2.2}}
\@writefile{toc}{\contentsline {section}{\numberline {2.3}Datov\IeC {\'e} struktury}{13}{section.2.3}}
\@writefile{toc}{\contentsline {subsection}{\numberline {2.3.1}Reprezentace mnohost\IeC {\v e}nu}{13}{subsection.2.3.1}}
\citation{gregorius}
\citation{gregorius}
\citation{quadedge}
\@writefile{toc}{\contentsline {subsubsection}{\numberline {2.3.1.1}Half-edge struktura}{14}{subsubsection.2.3.1.1}}
\@writefile{lof}{\contentsline {figure}{\numberline {2.1}{\ignorespaces Uk\IeC {\'a}zka half-edge struktury}}{14}{figure.2.1}}
\newlabel{halfedge}{{\M@TitleReference {2.1}{Uk\IeC {\'a}zka half-edge struktury}}{14}{Ukázka half-edge struktury\relax }{figure.2.1}{}}
\@writefile{toc}{\contentsline {subsubsection}{\numberline {2.3.1.2}Dal\IeC {\v s}\IeC {\'\i } mo\IeC {\v z}n\IeC {\'e} struktury}{15}{subsubsection.2.3.1.2}}
\citation{mitura}
\citation{jarvis}
\citation{afcp}
\@writefile{lof}{\addvspace {10pt}}
\@writefile{lot}{\addvspace {10pt}}
\@writefile{toc}{\contentsline {chapter}{\chapternumberline {3}Algoritmy pro nalezen\IeC {\'\i } konvexn\IeC {\'\i } ob\IeC {\'a}lky ve 3D}{17}{chapter.3}}
\newlabel{chap:znameAlgoritmy}{{\M@TitleReference {3}{Algoritmy pro nalezen\IeC {\'\i } konvexn\IeC {\'\i } ob\IeC {\'a}lky ve 3D}}{17}{Algoritmy pro nalezení konvexní obálky ve 3D\relax }{chapter.3}{}}
\@writefile{toc}{\contentsline {section}{\numberline {3.1}Jarvis March}{17}{section.3.1}}
\newlabel{sec:jarvis}{{\M@TitleReference {3.1}{Jarvis March}}{17}{Jarvis March\relax }{section.3.1}{}}
\@writefile{toc}{\contentsline {subsection}{\numberline {3.1.1}Popis algoritmu}{17}{subsection.3.1.1}}
\citation{cpp:set}
\citation{preparataHong}
\citation{cgic}
\@writefile{loa}{\contentsline {algorithm}{\numberline {1}{\ignorespaces Jarvis March}}{19}{algorithm.1}}
\newlabel{pseudoJarvis}{{\M@TitleReference {1}{Jarvis March}}{19}{Jarvis March\relax }{algorithm.1}{}}
\@writefile{toc}{\contentsline {subsection}{\numberline {3.1.2}Slo\IeC {\v z}itost algoritmu}{19}{subsection.3.1.2}}
\newlabel{veta:jarvisslozitost}{{\M@TitleReference {3}{Slo\IeC {\v z}itost algoritmu}}{19}{\relax }{veta.3}{}}
\newlabel{subsec:jarvispopis}{{\M@TitleReference {3.1.2}{Slo\IeC {\v z}itost algoritmu}}{19}{Složitost algoritmu\relax }{veta.3}{}}
\@writefile{toc}{\contentsline {section}{\numberline {3.2}Algoritmus Divide and Conquer}{19}{section.3.2}}
\newlabel{section:divide}{{\M@TitleReference {3.2}{Algoritmus Divide and Conquer}}{19}{Algoritmus Divide and Conquer\relax }{section.3.2}{}}
\citation{cgic}
\citation{cgic}
\citation{cgic}
\@writefile{toc}{\contentsline {subsection}{\numberline {3.2.1}Popis algoritmu}{20}{subsection.3.2.1}}
\@writefile{lof}{\contentsline {figure}{\numberline {3.1}{\ignorespaces Slou\IeC {\v c}en\IeC {\'\i } dvou konvexn\IeC {\'\i }ch ob\IeC {\'a}lek}}{20}{figure.3.1}}
\newlabel{merge}{{\M@TitleReference {3.1}{Slou\IeC {\v c}en\IeC {\'\i } dvou konvexn\IeC {\'\i }ch ob\IeC {\'a}lek}}{20}{Sloučení dvou konvexních obálek\relax }{figure.3.1}{}}
\citation{cgic}
\citation{cgic}
\citation{preparataHong}
\citation{cgic}
\citation{cichar}
\@writefile{lof}{\contentsline {figure}{\numberline {3.2}{\ignorespaces Slou\IeC {\v c}en\IeC {\'\i } dvou konvexn\IeC {\'\i }ch ob\IeC {\'a}lek}}{21}{figure.3.2}}
\newlabel{obalovani}{{\M@TitleReference {3.2}{Slou\IeC {\v c}en\IeC {\'\i } dvou konvexn\IeC {\'\i }ch ob\IeC {\'a}lek}}{21}{Sloučení dvou konvexních obálek\relax }{figure.3.2}{}}
\citation{cgic}
\citation{cgic}
\citation{cgic}
\@writefile{toc}{\contentsline {section}{\numberline {3.3}Inkrement\IeC {\'a}ln\IeC {\'\i } algoritmus}{22}{section.3.3}}
\newlabel{sec:incremental}{{\M@TitleReference {3.3}{Inkrement\IeC {\'a}ln\IeC {\'\i } algoritmus}}{22}{Inkrementální algoritmus\relax }{section.3.3}{}}
\@writefile{toc}{\contentsline {subsection}{\numberline {3.3.1}Popis algoritmu}{22}{subsection.3.3.1}}
\@writefile{lof}{\contentsline {figure}{\numberline {3.3}{\ignorespaces \IeC {\v C}ty\IeC {\v r}st\IeC {\v e}n pro v\IeC {\'y}po\IeC {\v c}et objemu}}{23}{figure.3.3}}
\newlabel{ctyrsten}{{\M@TitleReference {3.3}{\IeC {\v C}ty\IeC {\v r}st\IeC {\v e}n pro v\IeC {\'y}po\IeC {\v c}et objemu}}{23}{Čtyřstěn pro výpočet objemu\relax }{figure.3.3}{}}
\citation{cgic}
\citation{cgic}
\citation{cgaa}
\citation{cgaa}
\@writefile{lof}{\contentsline {figure}{\numberline {3.4}{\ignorespaces (a) Konvexn\IeC {\'\i } ob\IeC {\'a}lka $H_{i-1}$ p\IeC {\v r}ed p\IeC {\v r}id\IeC {\'a}n\IeC {\'\i }m bodu v rohu (b) Konvexn\IeC {\'\i } ob\IeC {\'a}lka $H_{i}$}}{24}{figure.3.4}}
\newlabel{incremental}{{\M@TitleReference {3.4}{(a) Konvexn\IeC {\'\i } ob\IeC {\'a}lka $H_{i-1}$ p\IeC {\v r}ed p\IeC {\v r}id\IeC {\'a}n\IeC {\'\i }m bodu v rohu (b) Konvexn\IeC {\'\i } ob\IeC {\'a}lka $H_{i}$}}{24}{(a) Konvexní obálka $H_{i-1}$ před přidáním bodu v rohu (b) Konvexní obálka $H_{i}$\relax }{figure.3.4}{}}
\@writefile{lof}{\contentsline {figure}{\numberline {3.5}{\ignorespaces Horizont a viditeln\IeC {\'e} st\IeC {\v e}ny (b\IeC {\'\i }le)}}{25}{figure.3.5}}
\newlabel{horizon}{{\M@TitleReference {3.5}{Horizont a viditeln\IeC {\'e} st\IeC {\v e}ny (b\IeC {\'\i }le)}}{25}{Horizont a viditelné stěny (bíle)\relax }{figure.3.5}{}}
\@writefile{loa}{\contentsline {algorithm}{\numberline {2}{\ignorespaces Inkrement\IeC {\'a}ln\IeC {\'\i } algoritmus}}{25}{algorithm.2}}
\citation{qafch}
\@writefile{toc}{\contentsline {subsection}{\numberline {3.3.2}Anal\IeC {\'y}za slo\IeC {\v z}itosti}{26}{subsection.3.3.2}}
\@writefile{toc}{\contentsline {section}{\numberline {3.4}QuickHull}{26}{section.3.4}}
\newlabel{sec:quickhull}{{\M@TitleReference {3.4}{QuickHull}}{26}{QuickHull\relax }{section.3.4}{}}
\@writefile{toc}{\contentsline {subsection}{\numberline {3.4.1}Popis algoritmu}{26}{subsection.3.4.1}}
\citation{quicksort}
\citation{qafch}
\citation{chanminimalist}
\@writefile{loa}{\contentsline {algorithm}{\numberline {3}{\ignorespaces QuickHull}}{27}{algorithm.3}}
\@writefile{toc}{\contentsline {subsection}{\numberline {3.4.2}Anal\IeC {\'y}za slo\IeC {\v z}itosti}{27}{subsection.3.4.2}}
\@writefile{toc}{\contentsline {section}{\numberline {3.5}Dal\IeC {\v s}\IeC {\'\i } algoritmy}{28}{section.3.5}}
\@writefile{lof}{\addvspace {10pt}}
\@writefile{lot}{\addvspace {10pt}}
\@writefile{toc}{\contentsline {chapter}{\chapternumberline {4}Optimalizace}{29}{chapter.4}}
\@writefile{toc}{\contentsline {section}{\numberline {4.1}Obecn\IeC {\'e} optimalizace}{29}{section.4.1}}
\newlabel{opti:obecne}{{\M@TitleReference {4.1}{Obecn\IeC {\'e} optimalizace}}{29}{Obecné optimalizace\relax }{section.4.1}{}}
\citation{mitura}
\@writefile{toc}{\contentsline {section}{\numberline {4.2}Jarvis March}{30}{section.4.2}}
\newlabel{opti:jarvis}{{\M@TitleReference {4.2}{Jarvis March}}{30}{Jarvis March\relax }{section.4.2}{}}
\@writefile{lof}{\contentsline {figure}{\numberline {4.1}{\ignorespaces Funkce kosinus}}{30}{figure.4.1}}
\newlabel{cosinus}{{\M@TitleReference {4.1}{Funkce kosinus}}{30}{Funkce kosinus\relax }{figure.4.1}{}}
\citation{seidel}
\citation{cgaa}
\citation{cgaa}
\@writefile{toc}{\contentsline {section}{\numberline {4.3}Inkrement\IeC {\'a}ln\IeC {\'\i } algoritmus}{31}{section.4.3}}
\newlabel{opti:incremental}{{\M@TitleReference {4.3}{Inkrement\IeC {\'a}ln\IeC {\'\i } algoritmus}}{31}{Inkrementální algoritmus\relax }{section.4.3}{}}
\citation{cgaa}
\citation{cgaa}
\citation{cgaa}
\@writefile{lof}{\contentsline {figure}{\numberline {4.2}{\ignorespaces Graf konflikt\IeC {\r u}}}{32}{figure.4.2}}
\newlabel{conflictGraph}{{\M@TitleReference {4.2}{Graf konflikt\IeC {\r u}}}{32}{Graf konfliktů\relax }{figure.4.2}{}}
\citation{wiki:float}
\citation{qafch}
\citation{qafch}
\citation{qafch}
\@writefile{lof}{\contentsline {figure}{\numberline {4.3}{\ignorespaces P\IeC {\v r}id\IeC {\'a}n\IeC {\'\i } nov\IeC {\'e} st\IeC {\v e}ny}}{33}{figure.4.3}}
\newlabel{conflictGraphUpdate}{{\M@TitleReference {4.3}{P\IeC {\v r}id\IeC {\'a}n\IeC {\'\i } nov\IeC {\'e} st\IeC {\v e}ny}}{33}{Přidání nové stěny\relax }{figure.4.3}{}}
\@writefile{toc}{\contentsline {subsection}{\numberline {4.3.1}Slo\IeC {\v z}itost algoritmu}{33}{subsection.4.3.1}}
\@writefile{toc}{\contentsline {section}{\numberline {4.4}QuickHull}{33}{section.4.4}}
\newlabel{opti:quickhull}{{\M@TitleReference {4.4}{QuickHull}}{33}{QuickHull\relax }{section.4.4}{}}
\citation{gregorius}
\citation{gregorius}
\citation{gregorius}
\citation{gregorius}
\@writefile{lof}{\contentsline {figure}{\numberline {4.4}{\ignorespaces Chybn\IeC {\'e} st\IeC {\v e}ny p\IeC {\v r}ed slou\IeC {\v c}en\IeC {\'\i }m}}{34}{figure.4.4}}
\newlabel{quickhullmerge}{{\M@TitleReference {4.4}{Chybn\IeC {\'e} st\IeC {\v e}ny p\IeC {\v r}ed slou\IeC {\v c}en\IeC {\'\i }m}}{34}{Chybné stěny před sloučením\relax }{figure.4.4}{}}
\@writefile{toc}{\contentsline {section}{\numberline {4.5}Fat Planes}{34}{section.4.5}}
\newlabel{fatplanes}{{\M@TitleReference {4.5}{Fat Planes}}{34}{Fat Planes\relax }{section.4.5}{}}
\citation{mitura}
\citation{qafch}
\@writefile{lof}{\contentsline {figure}{\numberline {4.5}{\ignorespaces Test konvexnosti st\IeC {\v e}n $F_{Left}$ a $F_{Right}$}}{35}{figure.4.5}}
\newlabel{convexityTest}{{\M@TitleReference {4.5}{Test konvexnosti st\IeC {\v e}n $F_{Left}$ a $F_{Right}$}}{35}{Test konvexnosti stěn $F_{Left}$ a $F_{Right}$\relax }{figure.4.5}{}}
\@writefile{lof}{\contentsline {figure}{\numberline {4.6}{\ignorespaces Fat planes}}{35}{figure.4.6}}
\newlabel{fatplane}{{\M@TitleReference {4.6}{Fat planes}}{35}{Fat planes\relax }{figure.4.6}{}}
\@writefile{toc}{\contentsline {section}{\numberline {4.6}Mo\IeC {\v z}nosti paralelizace}{36}{section.4.6}}
\@writefile{toc}{\contentsline {subsection}{\numberline {4.6.1}Jarvis march}{36}{subsection.4.6.1}}
\@writefile{toc}{\contentsline {subsection}{\numberline {4.6.2}Inkrement\IeC {\'a}ln\IeC {\'\i } algoritmus}{36}{subsection.4.6.2}}
\@writefile{toc}{\contentsline {subsection}{\numberline {4.6.3}QuickHull}{37}{subsection.4.6.3}}
\citation{qhull}
\citation{gcc}
\citation{qafch}
\citation{qhull}
\@writefile{lof}{\addvspace {10pt}}
\@writefile{lot}{\addvspace {10pt}}
\@writefile{toc}{\contentsline {chapter}{\chapternumberline {5}V\IeC {\'y}sledky}{39}{chapter.5}}
\newlabel{chap:vysledky}{{\M@TitleReference {5}{V\IeC {\'y}sledky}}{39}{Výsledky\relax }{chapter.5}{}}
\@writefile{toc}{\contentsline {section}{\numberline {5.1}Testovac\IeC {\'\i } data}{40}{section.5.1}}
\@writefile{toc}{\contentsline {section}{\numberline {5.2}Jednotliv\IeC {\'e} algoritmy}{40}{section.5.2}}
\@writefile{toc}{\contentsline {subsection}{\numberline {5.2.1}Jarvis March}{40}{subsection.5.2.1}}
\citation{qhull}
\@writefile{toc}{\contentsline {subsection}{\numberline {5.2.2}Inkrement\IeC {\'a}ln\IeC {\'\i } algoritmus}{41}{subsection.5.2.2}}
\@writefile{lof}{\contentsline {figure}{\numberline {5.1}{\ignorespaces M\IeC {\v e}\IeC {\v r}en\IeC {\'e} \IeC {\v c}asy inkrement\IeC {\'a}ln\IeC {\'\i }ho algoritmu pro v\IeC {\v s}echna testovac\IeC {\'\i } data}}{41}{figure.5.1}}
\newlabel{vykon:incremental}{{\M@TitleReference {5.1}{M\IeC {\v e}\IeC {\v r}en\IeC {\'e} \IeC {\v c}asy inkrement\IeC {\'a}ln\IeC {\'\i }ho algoritmu pro v\IeC {\v s}echna testovac\IeC {\'\i } data}}{41}{Měřené časy inkrementálního algoritmu pro všechna testovací data\relax }{figure.5.1}{}}
\@writefile{toc}{\contentsline {subsection}{\numberline {5.2.3}QuichHull}{41}{subsection.5.2.3}}
\@writefile{toc}{\contentsline {section}{\numberline {5.3}Celkov\IeC {\'e} porovn\IeC {\'a}n\IeC {\'\i }}{41}{section.5.3}}
\@writefile{lot}{\contentsline {table}{\numberline {5.1}{\ignorespaces M\IeC {\v e}\IeC {\v r}en\IeC {\'e} \IeC {\v c}asy algoritm\IeC {\r u} Jarvis march, QuickHull a knihovny QHull pro testovac\IeC {\'\i } data \IeC {\v c}. 2}}{42}{table.5.1}}
\newlabel{vykon:sphereW1}{{\M@TitleReference {5.1}{M\IeC {\v e}\IeC {\v r}en\IeC {\'e} \IeC {\v c}asy algoritm\IeC {\r u} Jarvis march, QuickHull a knihovny QHull pro testovac\IeC {\'\i } data \IeC {\v c}. 2}}{42}{Měřené časy algoritmů Jarvis march, QuickHull a knihovny QHull pro testovací data č. 2\relax }{table.5.1}{}}
\@writefile{lof}{\contentsline {figure}{\numberline {5.2}{\ignorespaces Porovn\IeC {\'a}n\IeC {\'\i } algoritm\IeC {\r u} pro testovac\IeC {\'\i } data \IeC {\v c}. 1}}{42}{figure.5.2}}
\newlabel{vykon:cubeW1}{{\M@TitleReference {5.2}{Porovn\IeC {\'a}n\IeC {\'\i } algoritm\IeC {\r u} pro testovac\IeC {\'\i } data \IeC {\v c}. 1}}{42}{Porovnání algoritmů pro testovací data č. 1\relax }{figure.5.2}{}}
\@writefile{lof}{\contentsline {figure}{\numberline {5.3}{\ignorespaces M\IeC {\v e}\IeC {\v r}en\IeC {\'e} \IeC {\v c}asy algoritm\IeC {\r u} Jarvis march, QuickHull a knihovny QHull pro testovac\IeC {\'\i } data \IeC {\v c}. 3}}{43}{figure.5.3}}
\newlabel{vykon:cubeW0}{{\M@TitleReference {5.3}{M\IeC {\v e}\IeC {\v r}en\IeC {\'e} \IeC {\v c}asy algoritm\IeC {\r u} Jarvis march, QuickHull a knihovny QHull pro testovac\IeC {\'\i } data \IeC {\v c}. 3}}{43}{Měřené časy algoritmů Jarvis march, QuickHull a knihovny QHull pro testovací data č. 3\relax }{figure.5.3}{}}
\@writefile{lof}{\contentsline {figure}{\numberline {5.4}{\ignorespaces M\IeC {\v e}\IeC {\v r}en\IeC {\'e} \IeC {\v c}asy algoritm\IeC {\r u} Jarvis march, QuickHull a knihovny QHull pro testovac\IeC {\'\i } data \IeC {\v c}. 4}}{44}{figure.5.4}}
\newlabel{vykon:sphereW0}{{\M@TitleReference {5.4}{M\IeC {\v e}\IeC {\v r}en\IeC {\'e} \IeC {\v c}asy algoritm\IeC {\r u} Jarvis march, QuickHull a knihovny QHull pro testovac\IeC {\'\i } data \IeC {\v c}. 4}}{44}{Měřené časy algoritmů Jarvis march, QuickHull a knihovny QHull pro testovací data č. 4\relax }{figure.5.4}{}}
\@writefile{lof}{\contentsline {figure}{\numberline {5.5}{\ignorespaces Kompil\IeC {\'a}torov\IeC {\'a} optimalizace algoritmu Jarvis march}}{44}{figure.5.5}}
\newlabel{vykon:optiJarvis}{{\M@TitleReference {5.5}{Kompil\IeC {\'a}torov\IeC {\'a} optimalizace algoritmu Jarvis march}}{44}{Kompilátorová optimalizace algoritmu Jarvis march\relax }{figure.5.5}{}}
\citation{mitura}
\citation{qhull}
\citation{cgal}
\bibstyle{csn690}
\bibdata{mybibliographyfile}
\@writefile{lof}{\addvspace {10pt}}
\@writefile{lot}{\addvspace {10pt}}
\@writefile{toc}{\contentsline {chapter}{Z{\' a}v{\v e}r}{45}{chapter*.9}}
\bibcite{wiki:Delaunay_triangulation}{1}
\bibcite{wiki:Voronoi_diagram}{2}
\bibcite{algsincompgeom}{3}
\bibcite{cgaithra}{4}
\bibcite{cgic}{5}
\bibcite{cgai}{6}
\bibcite{graham}{7}
\bibcite{jarvis}{8}
\bibcite{tupcha}{9}
\bibcite{mitura}{10}
\@writefile{toc}{\contentsline {chapter}{Literatura}{47}{section*.11}}
\bibcite{cgaa}{11}
\bibcite{convexNonConvex}{12}
\bibcite{convex2D3D}{13}
\bibcite{felkel}{14}
\bibcite{chcas}{15}
\bibcite{cpp:stl}{16}
\bibcite{cpp:algorithm}{17}
\bibcite{cpp:math}{18}
\bibcite{qhull}{19}
\bibcite{cgal}{20}
\bibcite{qhulljava}{21}
\bibcite{gregorius}{22}
\bibcite{quadedge}{23}
\bibcite{afcp}{24}
\bibcite{cpp:set}{25}
\bibcite{preparataHong}{26}
\bibcite{cichar}{27}
\bibcite{qafch}{28}
\bibcite{quicksort}{29}
\bibcite{chanminimalist}{30}
\bibcite{seidel}{31}
\bibcite{wiki:float}{32}
\bibcite{gcc}{33}
\@writefile{lof}{\addvspace {10pt}}
\@writefile{lot}{\addvspace {10pt}}
\@writefile{toc}{\contentsline {appendix}{\chapternumberline {A}Seznam pou\IeC {\v z}it\IeC {\'y}ch zkratek}{51}{appendix.A}}
\@writefile{lof}{\addvspace {10pt}}
\@writefile{lot}{\addvspace {10pt}}
\@writefile{toc}{\contentsline {appendix}{\chapternumberline {B}Obsah p\IeC {\v r}ilo\IeC {\v z}en\IeC {\'e}ho CD}{53}{appendix.B}}
\newlabel{tab:was:used:in:doc}{{\M@TitleReference {B}{Obsah p\IeC {\v r}ilo\IeC {\v z}en\IeC {\'e}ho CD}}{53}{Obsah přiloženého CD\relax }{appendix.B}{}}
\memsetcounter{lastsheet}{69}
\memsetcounter{lastpage}{53}
