\relax 
\providecommand*{\memsetcounter}[2]{}
\catcode`"\active
\catcode`-\active
\providecommand\HyperFirstAtBeginDocument{\AtBeginDocument}
\HyperFirstAtBeginDocument{\ifx\hyper@anchor\@undefined
\global\let\oldcontentsline\contentsline
\gdef\contentsline#1#2#3#4{\oldcontentsline{#1}{#2}{#3}}
\global\let\oldnewlabel\newlabel
\gdef\newlabel#1#2{\newlabelxx{#1}#2}
\gdef\newlabelxx#1#2#3#4#5#6{\oldnewlabel{#1}{{#2}{#3}}}
\AtEndDocument{\ifx\hyper@anchor\@undefined
\let\contentsline\oldcontentsline
\let\newlabel\oldnewlabel
\fi}
\fi}
\global\let\hyper@last\relax 
\gdef\HyperFirstAtBeginDocument#1{#1}
\providecommand\HyField@AuxAddToFields[1]{}
\select@language{czech}
\@writefile{toc}{\select@language{czech}}
\@writefile{lof}{\select@language{czech}}
\@writefile{lot}{\select@language{czech}}
\select@language{czech}
\@writefile{toc}{\select@language{czech}}
\@writefile{lof}{\select@language{czech}}
\@writefile{lot}{\select@language{czech}}
\@writefile{toc}{\contentsline {subsection}{Odkaz na tuto pr{\' a}ci}{viii}{section*.1}}
\citation{algsincompgeom}
\citation{cgaithra}
\citation{cgic}
\citation{cgai}
\citation{graham}
\citation{jarvis}
\citation{svgspec}
\@writefile{lof}{\addvspace {10pt}}
\@writefile{lot}{\addvspace {10pt}}
\@writefile{toc}{\contentsline {chapter}{{\' U}vod}{1}{chapter*.5}}
\@writefile{lof}{\addvspace {10pt}}
\@writefile{lot}{\addvspace {10pt}}
\@writefile{toc}{\contentsline {chapter}{\chapternumberline {1}C\IeC {\'\i }l pr\IeC {\'a}ce}{3}{chapter.1}}
\@writefile{lof}{\addvspace {10pt}}
\@writefile{lot}{\addvspace {10pt}}
\@writefile{toc}{\contentsline {chapter}{\chapternumberline {2}Anal\IeC {\'y}za a n\IeC {\'a}vrh}{5}{chapter.2}}
\@writefile{lof}{\addvspace {10pt}}
\@writefile{lot}{\addvspace {10pt}}
\@writefile{toc}{\contentsline {chapter}{\chapternumberline {3}Realizace}{7}{chapter.3}}
\bibstyle{csn690}
\bibdata{mybibliographyfile}
\@writefile{lof}{\addvspace {10pt}}
\@writefile{lot}{\addvspace {10pt}}
\@writefile{toc}{\contentsline {chapter}{Z{\' a}v{\v e}r}{9}{chapter*.6}}
\bibcite{algsincompgeom}{1}
\bibcite{cgaithra}{2}
\bibcite{cgic}{3}
\bibcite{cgai}{4}
\bibcite{graham}{5}
\bibcite{jarvis}{6}
\bibcite{svgspec}{7}
\@writefile{toc}{\contentsline {chapter}{Literatura}{11}{section*.8}}
\@writefile{lof}{\addvspace {10pt}}
\@writefile{lot}{\addvspace {10pt}}
\@writefile{toc}{\contentsline {appendix}{\chapternumberline {A}Seznam pou\IeC {\v z}it\IeC {\'y}ch zkratek}{13}{appendix.A}}
\@writefile{lof}{\addvspace {10pt}}
\@writefile{lot}{\addvspace {10pt}}
\@writefile{toc}{\contentsline {appendix}{\chapternumberline {B}Obsah p\IeC {\v r}ilo\IeC {\v z}en\IeC {\'e}ho CD}{15}{appendix.B}}
\memsetcounter{lastsheet}{29}
\memsetcounter{lastpage}{15}
