\BOOKMARK [0][-]{chapter*.5}{\332vod}{}% 1
\BOOKMARK [0][-]{chapter.1}{C\355l pr\341ce}{}% 2
\BOOKMARK [0][-]{chapter.2}{Anal\375za a n\341vrh}{}% 3
\BOOKMARK [0][-]{chapter.3}{Realizace}{}% 4
\BOOKMARK [0][-]{chapter*.6}{Z\341ver}{}% 5
\BOOKMARK [0][-]{section*.8}{Literatura}{}% 6
\BOOKMARK [0][-]{appendix.A}{Seznam pou\236it\375ch zkratek}{}% 7
\BOOKMARK [0][-]{appendix.B}{Obsah prilo\236en\351ho CD}{}% 8
