Enter dimension (works only with 3) number of points and points coordinates:
QHull   10000    -1   0.0219982  1
Incremental   10000    218   0.958923  1
IncrementalOptimized   10000    218   0.593025  1
Divide   10000    218   0.645746  1
QHull   15000    -1   0.0273699  1
Incremental   15000    244   1.1826  1
IncrementalOptimized   15000    244   0.849159  1
Divide   15000    244   0.996292  1
QHull   20000    -1   0.0317963  1
Incremental   20000    280   2.04923  1
IncrementalOptimized   20000    280   1.62843  1
Divide   20000    280   1.2918  1
QHull   25000    -1   0.0368601  1
Incremental   25000    292   2.35545  1
IncrementalOptimized   25000    292   1.79591  1
Divide   25000    292   1.57184  1
QHull   30000    -1   0.039636  1
Incremental   30000    308   2.95991  1
IncrementalOptimized   30000    308   2.28465  1
Divide   30000    308   2.08109  1
QHull   35000    -1   0.0437952  1
Incremental   35000    332   4.03041  1
IncrementalOptimized   35000    332   4.82809  1
Divide   35000    332   2.35232  1
QHull   40000    -1   0.0513747  1
Incremental   40000    320   4.40203  1
IncrementalOptimized   40000    320   4.28751  1
Divide   40000    320   2.61841  1
QHull   45000    -1   0.0557479  1
Incremental   45000    348   4.95442  1
IncrementalOptimized   45000    348   5.51217  1
Divide   45000    348   2.88745  1
QHull   50000    -1   0.0608971  1
Incremental   50000    364   5.66549  1
IncrementalOptimized   50000    364   6.37658  1
Divide   50000    364   3.14503  1
QHull   55000    -1   0.0669418  1
Incremental   55000    378   7.16067  1
IncrementalOptimized   55000    378   8.08099  1
Divide   55000    378   3.86741  1
